{
    // Normal bet
    "bet_id_normal" : {
        "prize" : ["A","B","C","D"],
        "type" : "2D",
        "g_type": "NORMAL",
        "number" : "12",
        "single" : 100 
    },
    // S bet
    "bet_id_s" : {
        "prize" : ["A","B","C","D"],
        "type" : "2D",
        "g_type": "S",
        "number" : "1s",
        "single" : 100
    },
    // Range bet
    "bet_id_range" : {
        "prize" : ["A","B","C","D"],
        "type" : "2D",
        "g_type": "RANGE",
        "number" : "11-22",
        "single" : 100
    },
    // X bet
    "bet_id_x" : {
        "prize" : ["A","B","C","D"],
        "type" : "2D",
        "g_type": "X",
        "number" : "12x",
        "single" : 100
    },
}